{
  "totalCount": 149,
  "count": 20,
  "offset": 0,
  "limit": 20,
  "links": {
    "next": "http://localhost:3000/v1/client/react/branches?offset=20"
  },
  "branches": [
    {
      "id": "564d9420-be28-4792-bbd5-6be52f93402b",
      "name": "Coolio Inc",
      "address": null,
      "location": "",
      "gps": { "lat": 5.5502, "lng": -0.2174 },
      "logo": "",
      "phone": "054-334-4232",
      "whatsAppPhone": "054-334-4232",
      "companyId": "a833ad7b-08b9-4e64-b2cc-e308ab64bd06",
      "startDate": "2021-03-17",
      "checkoutSales": false,
      "aggregateSales": true,
      "type": "retail",
      "action": null,
      "syncInterval": null,
      "alwaysSync": false,
      "businessCategoryId": null,
      "forTesting": false,
      "longitude": -0.2174,
      "latitude": 5.5502,
      "country": "Ghana",
      "region": null,
      "city": "Accra",
      "adminLastModifiedBy": null,
      "lastModifiedBy": null,
      "created_at": 1615998469914,
      "updated_at": 1615998469914
    },
    {
      "id": "5bbbeac0-ee0f-447b-b005-f3770aff0d75",
      "name": "gffg",
      "address": null,
      "location": "",
      "gps": { "lat": 5.5502, "lng": -0.2174 },
      "logo": "",
      "phone": "054-334-4560",
      "whatsAppPhone": "054-334-4560",
      "companyId": "01323b77-e6e4-4799-b9d7-91c06c6a45ba",
      "startDate": "2021-03-17",
      "checkoutSales": false,
      "aggregateSales": true,
      "type": "retail",
      "action": null,
      "syncInterval": null,
      "alwaysSync": false,
      "businessCategoryId": null,
      "forTesting": false,
      "longitude": -0.2174,
      "latitude": 5.5502,
      "country": "Ghana",
      "region": null,
      "city": "Accra",
      "adminLastModifiedBy": null,
      "lastModifiedBy": null,
      "created_at": 1615996969576,
      "updated_at": 1615996969576
    },
    {
      "id": "f08c9c33-2db8-4788-b34e-49afa5bce536",
      "name": "Ssa Inc",
      "address": null,
      "location": "",
      "gps": { "lat": 5.5502, "lng": -0.2174 },
      "logo": "",
      "phone": "054-334-4236",
      "whatsAppPhone": "054-334-4236",
      "companyId": "9c9a416e-f212-4892-af6f-6468da91cdb5",
      "startDate": "2021-03-17",
      "checkoutSales": false,
      "aggregateSales": true,
      "type": "retail",
      "action": null,
      "syncInterval": null,
      "alwaysSync": false,
      "businessCategoryId": null,
      "forTesting": false,
      "longitude": -0.2174,
      "latitude": 5.5502,
      "country": "Ghana",
      "region": null,
      "city": "Accra",
      "adminLastModifiedBy": null,
      "lastModifiedBy": null,
      "created_at": 1615995966754,
      "updated_at": 1615995966754
    },
    {
      "id": "1c80efab-7d68-4704-94a7-b5afd7c52582",
      "name": "gfy",
      "address": null,
      "location": "",
      "gps": { "lat": 5.5502, "lng": -0.2174 },
      "logo": "",
      "phone": "655-677-3744",
      "whatsAppPhone": "655-677-3744",
      "companyId": "d8b1bdfe-4b41-456a-96d6-4b9ef4c8107b",
      "startDate": "2021-03-17",
      "checkoutSales": false,
      "aggregateSales": true,
      "type": "retail",
      "action": null,
      "syncInterval": null,
      "alwaysSync": false,
      "businessCategoryId": null,
      "forTesting": false,
      "longitude": -0.2174,
      "latitude": 5.5502,
      "country": "Ghana",
      "region": null,
      "city": "Accra",
      "adminLastModifiedBy": null,
      "lastModifiedBy": null,
      "created_at": 1615995938358,
      "updated_at": 1615995938358
    },
    {
      "id": "f1cc6b65-4ff6-469d-80a6-935f7127924b",
      "name": "sal",
      "address": null,
      "location": "",
      "gps": {},
      "logo": "",
      "phone": "054-334-4222",
      "whatsAppPhone": "054-334-4222",
      "companyId": "18096313-5990-4756-bc5b-c8a0bd7e51ae",
      "startDate": "2021-03-12",
      "checkoutSales": false,
      "aggregateSales": true,
      "type": "wholesale",
      "action": null,
      "syncInterval": null,
      "alwaysSync": false,
      "businessCategoryId": null,
      "forTesting": false,
      "longitude": null,
      "latitude": null,
      "country": null,
      "region": null,
      "city": null,
      "adminLastModifiedBy": null,
      "lastModifiedBy": null,
      "created_at": 1615555266075,
      "updated_at": 1615555266075
    },
    {
      "id": "4aca2bac-0a9b-4411-81fb-ca3a38a614da",
      "name": "kwdjnfkejnfwkwew",
      "address": null,
      "location": "",
      "gps": {},
      "logo": "",
      "phone": "343-434-3221",
      "whatsAppPhone": "343-434-3221",
      "companyId": "9b27ac98-14a4-46ab-ab10-ebde97628c95",
      "startDate": "2021-03-12",
      "checkoutSales": false,
      "aggregateSales": true,
      "type": "retail",
      "action": null,
      "syncInterval": null,
      "alwaysSync": false,
      "businessCategoryId": null,
      "forTesting": false,
      "longitude": null,
      "latitude": null,
      "country": null,
      "region": null,
      "city": null,
      "adminLastModifiedBy": null,
      "lastModifiedBy": null,
      "created_at": 1615554649546,
      "updated_at": 1615554649546
    },
    {
      "id": "eb39430d-5c36-45ea-8d8f-acb6cc9e2c41",
      "name": "kwdjnfkejnfwk",
      "address": null,
      "location": "",
      "gps": {},
      "logo": "",
      "phone": "343-434-3224",
      "whatsAppPhone": "343-434-3224",
      "companyId": "0b9bc139-c54f-4e74-9ecd-ca679b432896",
      "startDate": "2021-03-12",
      "checkoutSales": false,
      "aggregateSales": true,
      "type": "wholesale",
      "action": null,
      "syncInterval": null,
      "alwaysSync": false,
      "businessCategoryId": null,
      "forTesting": false,
      "longitude": null,
      "latitude": null,
      "country": null,
      "region": null,
      "city": null,
      "adminLastModifiedBy": null,
      "lastModifiedBy": null,
      "created_at": 1615553916648,
      "updated_at": 1615553916648
    },
    {
      "id": "79bac66e-8b79-4dcf-abf4-531b925e92f9",
      "name": "Sallocwork",
      "address": null,
      "location": "",
      "gps": {},
      "logo": "",
      "phone": "054-333-3332",
      "whatsAppPhone": "054-333-3332",
      "companyId": "40d9879a-0462-41e4-a6cf-0116a8b04a54",
      "startDate": "2021-03-12",
      "checkoutSales": false,
      "aggregateSales": true,
      "type": "retail",
      "action": null,
      "syncInterval": null,
      "alwaysSync": false,
      "businessCategoryId": null,
      "forTesting": false,
      "longitude": null,
      "latitude": null,
      "country": null,
      "region": null,
      "city": null,
      "adminLastModifiedBy": null,
      "lastModifiedBy": null,
      "created_at": 1615553750533,
      "updated_at": 1615553750533
    },
    {
      "id": "fabb25d9-ad85-4693-9de6-568b6b98cbb5",
      "name": "Salloc2",
      "address": null,
      "location": "",
      "gps": {},
      "logo": "",
      "phone": "054-334-4111",
      "whatsAppPhone": "054-334-4111",
      "companyId": "fca03a45-43b0-4ce9-a63e-25daa89deed2",
      "startDate": "2021-03-12",
      "checkoutSales": false,
      "aggregateSales": true,
      "type": "wholesale",
      "action": null,
      "syncInterval": null,
      "alwaysSync": false,
      "businessCategoryId": null,
      "forTesting": false,
      "longitude": null,
      "latitude": null,
      "country": null,
      "region": null,
      "city": null,
      "adminLastModifiedBy": null,
      "lastModifiedBy": null,
      "created_at": 1615553629427,
      "updated_at": 1615553629427
    },
    {
      "id": "22b56f1c-535e-438e-b125-6b02e3b2da63",
      "name": "salsalloc",
      "address": null,
      "location": "",
      "gps": {},
      "logo": "",
      "phone": "054-332-2333",
      "whatsAppPhone": "054-332-2333",
      "companyId": "21287de4-1e10-4180-bd8b-afa7a163ba00",
      "startDate": "2021-03-12",
      "checkoutSales": false,
      "aggregateSales": true,
      "type": "wholesale",
      "action": null,
      "syncInterval": null,
      "alwaysSync": false,
      "businessCategoryId": null,
      "forTesting": false,
      "longitude": null,
      "latitude": null,
      "country": null,
      "region": null,
      "city": null,
      "adminLastModifiedBy": null,
      "lastModifiedBy": null,
      "created_at": 1615553318836,
      "updated_at": 1615553318836
    },
    {
      "id": "39632a41-b796-4c4f-b7ec-c1335538f855",
      "name": "Sallocdev",
      "address": null,
      "location": "",
      "gps": {},
      "logo": "",
      "phone": "054-334-4299",
      "whatsAppPhone": "054-334-4299",
      "companyId": "92765df9-1ae6-452e-b955-2880026f7d13",
      "startDate": "2021-03-12",
      "checkoutSales": false,
      "aggregateSales": true,
      "type": "wholesale",
      "action": null,
      "syncInterval": null,
      "alwaysSync": false,
      "businessCategoryId": null,
      "forTesting": false,
      "longitude": null,
      "latitude": null,
      "country": null,
      "region": null,
      "city": null,
      "adminLastModifiedBy": null,
      "lastModifiedBy": null,
      "created_at": 1615553123250,
      "updated_at": 1615553123250
    },
    {
      "id": "1ea768d3-917b-4567-a73d-94203c171427",
      "name": "jhjhj",
      "address": null,
      "location": "Unnamed Road, Accra, Ghana",
      "gps": { "lat": 5.550241499999999, "lng": -0.2180562 },
      "logo": "",
      "phone": "054-334-4666",
      "whatsAppPhone": "054-334-4666",
      "companyId": "aa10bb60-86aa-4d17-9df9-f4cd66ed0b69",
      "startDate": "2021-03-09",
      "checkoutSales": false,
      "aggregateSales": true,
      "type": "wholesale",
      "action": null,
      "syncInterval": null,
      "alwaysSync": false,
      "businessCategoryId": null,
      "forTesting": false,
      "longitude": -0.2180562,
      "latitude": 5.5502415,
      "country": null,
      "region": null,
      "city": null,
      "adminLastModifiedBy": null,
      "lastModifiedBy": null,
      "created_at": 1615300972836,
      "updated_at": 1615300972836
    },
    {
      "id": "6f47e238-7330-4bea-9734-7d0953c6271b",
      "name": "eererere",
      "address": null,
      "location": "Unnamed Road, Accra, Ghana",
      "gps": { "lat": 5.550241499999999, "lng": -0.2180562 },
      "logo": "",
      "phone": "054-334-4234",
      "whatsAppPhone": "054-334-4234",
      "companyId": "51d2a4b2-b363-4fab-b938-2c820d0b52a6",
      "startDate": "2021-03-09",
      "checkoutSales": false,
      "aggregateSales": true,
      "type": "retail",
      "action": null,
      "syncInterval": null,
      "alwaysSync": false,
      "businessCategoryId": null,
      "forTesting": false,
      "longitude": -0.2180562,
      "latitude": 5.5502415,
      "country": null,
      "region": null,
      "city": null,
      "adminLastModifiedBy": null,
      "lastModifiedBy": null,
      "created_at": 1615289924900,
      "updated_at": 1615289924900
    },
    {
      "id": "bad63ed3-92ee-4381-baac-412b8873e1e6",
      "name": "juiuiu",
      "address": null,
      "location": "Unnamed Road, Accra, Ghana",
      "gps": { "lat": 5.550241499999999, "lng": -0.2180562 },
      "logo": "",
      "phone": "054-334-4444",
      "whatsAppPhone": "054-334-4444",
      "companyId": "43ad603d-7d63-4d42-a4a5-6bcbf4fb854d",
      "startDate": "2021-02-22",
      "checkoutSales": false,
      "aggregateSales": true,
      "type": "retail",
      "action": null,
      "syncInterval": null,
      "alwaysSync": false,
      "businessCategoryId": null,
      "forTesting": false,
      "longitude": -0.218056201934814,
      "latitude": 5.55024147033691,
      "country": null,
      "region": null,
      "city": null,
      "adminLastModifiedBy": null,
      "lastModifiedBy": null,
      "created_at": 1613990420908,
      "updated_at": 1613990420908
    },
    {
      "id": "cc44eacd-85b0-4819-b823-a4d8a898234f",
      "name": "Addy Enterprise",
      "address": null,
      "location": "Unnamed Road, Accra, Ghana",
      "gps": { "lat": 5.550241499999999, "lng": -0.2180562 },
      "logo": "",
      "phone": "054-506-9576",
      "whatsAppPhone": "054-506-9576",
      "companyId": "f243bf5b-e4eb-417b-9fed-ce6a19ffe95b",
      "startDate": "2021-02-19",
      "checkoutSales": false,
      "aggregateSales": true,
      "type": "retail",
      "action": null,
      "syncInterval": null,
      "alwaysSync": false,
      "businessCategoryId": null,
      "forTesting": false,
      "longitude": -0.218056201934814,
      "latitude": 5.55024147033691,
      "country": null,
      "region": null,
      "city": null,
      "adminLastModifiedBy": null,
      "lastModifiedBy": null,
      "created_at": 1613737543770,
      "updated_at": 1613737543770
    },
    {
      "id": "9e8a77fd-0e04-485a-bfae-d4a29bba6673",
      "name": "G Unit",
      "address": null,
      "location": "Nima",
      "gps": null,
      "logo": "",
      "phone": "054-334-4100",
      "whatsAppPhone": "054-334-4100",
      "companyId": "c265d643-b603-4303-8ba8-2fd82b9780b8",
      "startDate": "2020-09-23",
      "checkoutSales": false,
      "aggregateSales": true,
      "type": "wholesale",
      "action": null,
      "syncInterval": null,
      "alwaysSync": false,
      "businessCategoryId": null,
      "forTesting": true,
      "longitude": null,
      "latitude": null,
      "country": null,
      "region": null,
      "city": null,
      "adminLastModifiedBy": "salifu@mystoreaid.com",
      "lastModifiedBy": "812ce9c1-486b-4e11-a5a5-6428214e40e7",
      "created_at": 1600822484079,
      "updated_at": 1612189096917
    },
    {
      "id": "4703ec5d-df90-4f02-9a19-18513c9c01f0",
      "name": "Money",
      "address": null,
      "location": "Nima",
      "gps": null,
      "logo": null,
      "phone": "054-334-4133",
      "whatsAppPhone": "054-334-4100",
      "companyId": "c265d643-b603-4303-8ba8-2fd82b9780b8",
      "startDate": null,
      "checkoutSales": false,
      "aggregateSales": false,
      "type": "retail",
      "action": null,
      "syncInterval": null,
      "alwaysSync": false,
      "businessCategoryId": "a753e0c0-43e6-4718-8ae3-8cac7948ce5c",
      "forTesting": false,
      "longitude": null,
      "latitude": null,
      "country": null,
      "region": null,
      "city": null,
      "adminLastModifiedBy": null,
      "lastModifiedBy": null,
      "created_at": 1603999233056,
      "updated_at": 1611059465481,
      "businessCategory": {
        "id": "a753e0c0-43e6-4718-8ae3-8cac7948ce5c",
        "name": "Kiosk",
        "description": null,
        "created_at": 1591030649219,
        "updated_at": 1591030649219
      }
    },
    {
      "id": "58f92a9d-fdff-4636-8c2a-dd59b247f8cc",
      "name": "Branch 2",
      "address": null,
      "location": "Maamobi",
      "gps": null,
      "logo": null,
      "phone": "054-334-4100",
      "whatsAppPhone": "054-334-4100",
      "companyId": "c265d643-b603-4303-8ba8-2fd82b9780b8",
      "startDate": null,
      "checkoutSales": false,
      "aggregateSales": false,
      "type": "retail",
      "action": null,
      "syncInterval": null,
      "alwaysSync": false,
      "businessCategoryId": "6b0ab404-8e8f-43b9-bd03-6f0102cfee05",
      "forTesting": false,
      "longitude": null,
      "latitude": null,
      "country": null,
      "region": null,
      "city": null,
      "adminLastModifiedBy": null,
      "lastModifiedBy": null,
      "created_at": 1600938796019,
      "updated_at": 1611057749500,
      "businessCategory": {
        "id": "6b0ab404-8e8f-43b9-bd03-6f0102cfee05",
        "name": "Supermarket",
        "description": null,
        "created_at": 1591030649219,
        "updated_at": 1591030649219
      }
    },
    {
      "id": "489176ac-12cc-4eda-94aa-79a3fb64986b",
      "name": "Kayite",
      "address": null,
      "location": "Lapaz main traffic light, N1, Accra, Ghana",
      "gps": { "lat": 5.6067405, "lng": -0.2489455 },
      "logo": null,
      "phone": "024-432-5391",
      "whatsAppPhone": "024-432-5391",
      "companyId": "ef88a08c-96bc-4b32-9cfb-d50870f45d20",
      "startDate": null,
      "checkoutSales": false,
      "aggregateSales": true,
      "type": "retail",
      "action": null,
      "syncInterval": null,
      "alwaysSync": false,
      "businessCategoryId": "6190fc19-007d-443f-bf8c-2b415f1ca6af",
      "forTesting": false,
      "longitude": -0.248945504426956,
      "latitude": 5.60674047470093,
      "country": null,
      "region": null,
      "city": null,
      "adminLastModifiedBy": null,
      "lastModifiedBy": null,
      "created_at": 1609946798538,
      "updated_at": 1611046094824,
      "businessCategory": {
        "id": "6190fc19-007d-443f-bf8c-2b415f1ca6af",
        "name": "Grocery",
        "description": null,
        "created_at": 1591030649219,
        "updated_at": 1591030649219
      }
    },
    {
      "id": "9e9109c1-3767-4761-a89d-85f526a3da6d",
      "name": "Gems branch",
      "address": null,
      "location": "Osu Badu Street, Accra, Ghana",
      "gps": { "lat": 5.6127163, "lng": -0.1972616 },
      "logo": null,
      "phone": "024-432-5391",
      "whatsAppPhone": "024-432-5391",
      "companyId": "ef88a08c-96bc-4b32-9cfb-d50870f45d20",
      "startDate": null,
      "checkoutSales": false,
      "aggregateSales": false,
      "type": "retail",
      "action": null,
      "syncInterval": null,
      "alwaysSync": false,
      "businessCategoryId": "a3d0dfc3-c61f-4153-90b1-312d22b2011a",
      "forTesting": true,
      "longitude": -0.197261601686478,
      "latitude": 5.61271619796753,
      "country": null,
      "region": null,
      "city": null,
      "adminLastModifiedBy": null,
      "lastModifiedBy": null,
      "created_at": 1597954990760,
      "updated_at": 1610987495287,
      "businessCategory": {
        "id": "a3d0dfc3-c61f-4153-90b1-312d22b2011a",
        "name": "Drink Store",
        "description": null,
        "created_at": 1591030649219,
        "updated_at": 1591030649219
      }
    }
  ]
}
