{
  "totalCount": 102,
  "count": 20,
  "offset": 0,
  "limit": 20,
  "links": {
    "next": "http://localhost:3000/v1/client/react/branches/8d0c6496-ec5c-408e-ba33-bfa616ea0a3e/sales?offset=20"
  },
  "sales": [
    {
      "id": "126653c6-c793-4b5a-8eb6-bcdac6ef1867",
      "note": null,
      "type": "sales",
      "paymentStatus": null,
      "paymentType": "cash",
      "branchId": "8d0c6496-ec5c-408e-ba33-bfa616ea0a3e",
      "customerId": "35c722d4-96f3-4d07-bde4-14d156b14130",
      "discount": 0,
      "salesDate": 1617021780,
      "receiptNumber": "d9fb109a-68b4-4340-bf4f-01c9ea0778fb",
      "createdBy": "6856cc2c-790c-473e-a969-b4a85f494f68",
      "auditId": null,
      "created_at": 1617021786796,
      "updated_at": 1617021786796,
      "last_modified": 1617021743587,
      "server_created_at": 1617021743587,
      "lastModifiedBy": null,
      "customer": {
        "id": "35c722d4-96f3-4d07-bde4-14d156b14130",
        "firstName": "Cash",
        "otherNames": "Customer",
        "phone": "1000000000",
        "email": "",
        "type": null,
        "entityId": null,
        "location": "",
        "isTemporary": false,
        "created_at": 1594214705858,
        "updated_at": 1594214705859,
        "last_modified": 1594214705859,
        "server_created_at": 1594214705859
      }
    },
    {
      "id": "72aa564f-db78-4131-a137-9bf08ecb893e",
      "note": null,
      "type": "sales",
      "paymentStatus": null,
      "paymentType": "cash",
      "branchId": "8d0c6496-ec5c-408e-ba33-bfa616ea0a3e",
      "customerId": "35c722d4-96f3-4d07-bde4-14d156b14130",
      "discount": 0,
      "salesDate": 1616590631,
      "receiptNumber": "6456bc0f-653c-4f98-b4b9-f51d1831b960",
      "createdBy": "6856cc2c-790c-473e-a969-b4a85f494f68",
      "auditId": null,
      "created_at": 1616590668144,
      "updated_at": 1616590668144,
      "last_modified": 1616590809533,
      "server_created_at": 1616590809533,
      "lastModifiedBy": null,
      "customer": {
        "id": "35c722d4-96f3-4d07-bde4-14d156b14130",
        "firstName": "Cash",
        "otherNames": "Customer",
        "phone": "1000000000",
        "email": "",
        "type": null,
        "entityId": null,
        "location": "",
        "isTemporary": false,
        "created_at": 1594214705858,
        "updated_at": 1594214705859,
        "last_modified": 1594214705859,
        "server_created_at": 1594214705859
      }
    },
    {
      "id": "243d1c2d-4efb-4960-912c-aa9015aad297",
      "note": null,
      "type": "sales",
      "paymentStatus": null,
      "paymentType": "cash",
      "branchId": "8d0c6496-ec5c-408e-ba33-bfa616ea0a3e",
      "customerId": "35c722d4-96f3-4d07-bde4-14d156b14130",
      "discount": 0,
      "salesDate": 1616590569,
      "receiptNumber": "d5207eb2-c7d6-4cc3-863d-ebde8b7b80b0",
      "createdBy": "6856cc2c-790c-473e-a969-b4a85f494f68",
      "auditId": null,
      "created_at": 1616590586879,
      "updated_at": 1616590586879,
      "last_modified": 1616590604759,
      "server_created_at": 1616590604759,
      "lastModifiedBy": null,
      "customer": {
        "id": "35c722d4-96f3-4d07-bde4-14d156b14130",
        "firstName": "Cash",
        "otherNames": "Customer",
        "phone": "1000000000",
        "email": "",
        "type": null,
        "entityId": null,
        "location": "",
        "isTemporary": false,
        "created_at": 1594214705858,
        "updated_at": 1594214705859,
        "last_modified": 1594214705859,
        "server_created_at": 1594214705859
      }
    },
    {
      "id": "3c71613e-b93c-4bf9-aa36-01f9ec929960",
      "note": null,
      "type": "sales",
      "paymentStatus": null,
      "paymentType": "cash",
      "branchId": "8d0c6496-ec5c-408e-ba33-bfa616ea0a3e",
      "customerId": "35c722d4-96f3-4d07-bde4-14d156b14130",
      "discount": 0,
      "salesDate": 1616590383,
      "receiptNumber": "0f08c98c-4bc8-4ea3-adf4-f84323718b1e",
      "createdBy": "6856cc2c-790c-473e-a969-b4a85f494f68",
      "auditId": null,
      "created_at": 1616590406497,
      "updated_at": 1616590406497,
      "last_modified": 1616590483081,
      "server_created_at": 1616590483081,
      "lastModifiedBy": null,
      "customer": {
        "id": "35c722d4-96f3-4d07-bde4-14d156b14130",
        "firstName": "Cash",
        "otherNames": "Customer",
        "phone": "1000000000",
        "email": "",
        "type": null,
        "entityId": null,
        "location": "",
        "isTemporary": false,
        "created_at": 1594214705858,
        "updated_at": 1594214705859,
        "last_modified": 1594214705859,
        "server_created_at": 1594214705859
      }
    },
    {
      "id": "5f838a37-fba3-448b-b068-423408d4b6ee",
      "note": null,
      "type": "sales",
      "paymentStatus": null,
      "paymentType": "cash",
      "branchId": "8d0c6496-ec5c-408e-ba33-bfa616ea0a3e",
      "customerId": "35c722d4-96f3-4d07-bde4-14d156b14130",
      "discount": 0,
      "salesDate": 1616590263,
      "receiptNumber": "b58172fe-8330-4473-a8e4-160ad0f69069",
      "createdBy": "6856cc2c-790c-473e-a969-b4a85f494f68",
      "auditId": null,
      "created_at": 1616590291066,
      "updated_at": 1616590291066,
      "last_modified": 1616590329807,
      "server_created_at": 1616590329807,
      "lastModifiedBy": null,
      "customer": {
        "id": "35c722d4-96f3-4d07-bde4-14d156b14130",
        "firstName": "Cash",
        "otherNames": "Customer",
        "phone": "1000000000",
        "email": "",
        "type": null,
        "entityId": null,
        "location": "",
        "isTemporary": false,
        "created_at": 1594214705858,
        "updated_at": 1594214705859,
        "last_modified": 1594214705859,
        "server_created_at": 1594214705859
      }
    },
    {
      "id": "236764e8-44ec-45ce-b232-7fce7cf839d7",
      "note": null,
      "type": "sales",
      "paymentStatus": null,
      "paymentType": "cash",
      "branchId": "8d0c6496-ec5c-408e-ba33-bfa616ea0a3e",
      "customerId": "35c722d4-96f3-4d07-bde4-14d156b14130",
      "discount": 0,
      "salesDate": 1616590081,
      "receiptNumber": "dc28bb5e-4227-4108-8d20-f198796a52c7",
      "createdBy": "6856cc2c-790c-473e-a969-b4a85f494f68",
      "auditId": null,
      "created_at": 1616590129052,
      "updated_at": 1616590129052,
      "last_modified": 1616590151366,
      "server_created_at": 1616590151366,
      "lastModifiedBy": null,
      "customer": {
        "id": "35c722d4-96f3-4d07-bde4-14d156b14130",
        "firstName": "Cash",
        "otherNames": "Customer",
        "phone": "1000000000",
        "email": "",
        "type": null,
        "entityId": null,
        "location": "",
        "isTemporary": false,
        "created_at": 1594214705858,
        "updated_at": 1594214705859,
        "last_modified": 1594214705859,
        "server_created_at": 1594214705859
      }
    },
    {
      "id": "c3f7f963-4364-4d28-9737-61f0f30a53bd",
      "note": null,
      "type": "sales",
      "paymentStatus": null,
      "paymentType": "cash",
      "branchId": "8d0c6496-ec5c-408e-ba33-bfa616ea0a3e",
      "customerId": "35c722d4-96f3-4d07-bde4-14d156b14130",
      "discount": 0,
      "salesDate": 1616589343,
      "receiptNumber": "a579fe6a-9a79-45a8-a0e1-f8802ec0d00d",
      "createdBy": "6856cc2c-790c-473e-a969-b4a85f494f68",
      "auditId": null,
      "created_at": 1616589615059,
      "updated_at": 1616589615059,
      "last_modified": 1616589623212,
      "server_created_at": 1616589623212,
      "lastModifiedBy": null,
      "customer": {
        "id": "35c722d4-96f3-4d07-bde4-14d156b14130",
        "firstName": "Cash",
        "otherNames": "Customer",
        "phone": "1000000000",
        "email": "",
        "type": null,
        "entityId": null,
        "location": "",
        "isTemporary": false,
        "created_at": 1594214705858,
        "updated_at": 1594214705859,
        "last_modified": 1594214705859,
        "server_created_at": 1594214705859
      }
    },
    {
      "id": "e698f947-f76b-4742-bcbb-b6ec7f5707ba",
      "note": null,
      "type": "sales",
      "paymentStatus": null,
      "paymentType": "cash",
      "branchId": "8d0c6496-ec5c-408e-ba33-bfa616ea0a3e",
      "customerId": "91881e60-2b0a-4be2-bb92-bc2a829bdcb6",
      "discount": 0,
      "salesDate": 1616084329,
      "receiptNumber": "be777a18-90b6-4d6b-af2a-c87d56a9a901",
      "createdBy": "6856cc2c-790c-473e-a969-b4a85f494f68",
      "auditId": null,
      "created_at": 1616084420650,
      "updated_at": 1616084420650,
      "last_modified": 1616084445795,
      "server_created_at": 1616084445795,
      "lastModifiedBy": null,
      "customer": {
        "id": "91881e60-2b0a-4be2-bb92-bc2a829bdcb6",
        "firstName": "opoku",
        "otherNames": null,
        "phone": "1234567890",
        "email": null,
        "type": null,
        "entityId": null,
        "location": null,
        "isTemporary": false,
        "created_at": 1616084349156,
        "updated_at": 1616084349156,
        "last_modified": 1616084355611,
        "server_created_at": 1616084355611
      }
    },
    {
      "id": "a4ac45f6-4aea-4e21-b081-38da655f1a08",
      "note": null,
      "type": "sales",
      "paymentStatus": null,
      "paymentType": "cash",
      "branchId": "8d0c6496-ec5c-408e-ba33-bfa616ea0a3e",
      "customerId": "35c722d4-96f3-4d07-bde4-14d156b14130",
      "discount": 0,
      "salesDate": 1616078598,
      "receiptNumber": "faa64dbb-3830-4989-9045-47546065cedc",
      "createdBy": "c7fedd94-302c-431b-9d99-db80891a5157",
      "auditId": null,
      "created_at": 1616078599838,
      "updated_at": 1616078599838,
      "last_modified": 1616078621786,
      "server_created_at": 1616078621786,
      "lastModifiedBy": null,
      "customer": {
        "id": "35c722d4-96f3-4d07-bde4-14d156b14130",
        "firstName": "Cash",
        "otherNames": "Customer",
        "phone": "1000000000",
        "email": "",
        "type": null,
        "entityId": null,
        "location": "",
        "isTemporary": false,
        "created_at": 1594214705858,
        "updated_at": 1594214705859,
        "last_modified": 1594214705859,
        "server_created_at": 1594214705859
      }
    },
    {
      "id": "798c474e-56e1-4b0b-8ccd-60e0e3d22f10",
      "note": null,
      "type": "sales",
      "paymentStatus": null,
      "paymentType": "cash",
      "branchId": "8d0c6496-ec5c-408e-ba33-bfa616ea0a3e",
      "customerId": "35c722d4-96f3-4d07-bde4-14d156b14130",
      "discount": 0,
      "salesDate": 1615776137,
      "receiptNumber": "ae3eb537-16b8-44b7-a944-1de03d7f6ab9",
      "createdBy": "c7fedd94-302c-431b-9d99-db80891a5157",
      "auditId": null,
      "created_at": 1616078554595,
      "updated_at": 1616078554595,
      "last_modified": 1616078562394,
      "server_created_at": 1616078562394,
      "lastModifiedBy": null,
      "customer": {
        "id": "35c722d4-96f3-4d07-bde4-14d156b14130",
        "firstName": "Cash",
        "otherNames": "Customer",
        "phone": "1000000000",
        "email": "",
        "type": null,
        "entityId": null,
        "location": "",
        "isTemporary": false,
        "created_at": 1594214705858,
        "updated_at": 1594214705859,
        "last_modified": 1594214705859,
        "server_created_at": 1594214705859
      }
    },
    {
      "id": "37f0f757-9c28-4292-b081-19a360f54f7d",
      "note": null,
      "type": "sales",
      "paymentStatus": null,
      "paymentType": "cash",
      "branchId": "8d0c6496-ec5c-408e-ba33-bfa616ea0a3e",
      "customerId": "35c722d4-96f3-4d07-bde4-14d156b14130",
      "discount": 0,
      "salesDate": 1616077439,
      "receiptNumber": "a66c69d4-af6b-4308-8398-568c9ffff8bc",
      "createdBy": "c7fedd94-302c-431b-9d99-db80891a5157",
      "auditId": null,
      "created_at": 1616077446898,
      "updated_at": 1616077446898,
      "last_modified": 1616077454223,
      "server_created_at": 1616077454223,
      "lastModifiedBy": null,
      "customer": {
        "id": "35c722d4-96f3-4d07-bde4-14d156b14130",
        "firstName": "Cash",
        "otherNames": "Customer",
        "phone": "1000000000",
        "email": "",
        "type": null,
        "entityId": null,
        "location": "",
        "isTemporary": false,
        "created_at": 1594214705858,
        "updated_at": 1594214705859,
        "last_modified": 1594214705859,
        "server_created_at": 1594214705859
      }
    },
    {
      "id": "a1b7b5ee-27af-4efc-b534-ac2fbebfc2be",
      "note": null,
      "type": "sales",
      "paymentStatus": null,
      "paymentType": "cash",
      "branchId": "8d0c6496-ec5c-408e-ba33-bfa616ea0a3e",
      "customerId": "35c722d4-96f3-4d07-bde4-14d156b14130",
      "discount": 0,
      "salesDate": 1615861082,
      "receiptNumber": "c88d0aa8-10fe-4b20-9f89-846be51fd570",
      "createdBy": "c7fedd94-302c-431b-9d99-db80891a5157",
      "auditId": null,
      "created_at": 1616077097172,
      "updated_at": 1616077097172,
      "last_modified": 1616077110952,
      "server_created_at": 1616077110952,
      "lastModifiedBy": null,
      "customer": {
        "id": "35c722d4-96f3-4d07-bde4-14d156b14130",
        "firstName": "Cash",
        "otherNames": "Customer",
        "phone": "1000000000",
        "email": "",
        "type": null,
        "entityId": null,
        "location": "",
        "isTemporary": false,
        "created_at": 1594214705858,
        "updated_at": 1594214705859,
        "last_modified": 1594214705859,
        "server_created_at": 1594214705859
      }
    },
    {
      "id": "643d83a6-94fe-4fb7-a1bf-f87333c7e84b",
      "note": null,
      "type": "sales",
      "paymentStatus": null,
      "paymentType": "cash",
      "branchId": "8d0c6496-ec5c-408e-ba33-bfa616ea0a3e",
      "customerId": "35c722d4-96f3-4d07-bde4-14d156b14130",
      "discount": 0,
      "salesDate": 1615859601,
      "receiptNumber": "b51afe49-e95e-4281-b554-19373383ba80",
      "createdBy": "c7fedd94-302c-431b-9d99-db80891a5157",
      "auditId": null,
      "created_at": 1616075623685,
      "updated_at": 1616075623685,
      "last_modified": 1616075639029,
      "server_created_at": 1616075639029,
      "lastModifiedBy": null,
      "customer": {
        "id": "35c722d4-96f3-4d07-bde4-14d156b14130",
        "firstName": "Cash",
        "otherNames": "Customer",
        "phone": "1000000000",
        "email": "",
        "type": null,
        "entityId": null,
        "location": "",
        "isTemporary": false,
        "created_at": 1594214705858,
        "updated_at": 1594214705859,
        "last_modified": 1594214705859,
        "server_created_at": 1594214705859
      }
    },
    {
      "id": "2b0c3515-b1d9-41f1-a690-24206df7a574",
      "note": null,
      "type": "sales",
      "paymentStatus": null,
      "paymentType": "cash",
      "branchId": "8d0c6496-ec5c-408e-ba33-bfa616ea0a3e",
      "customerId": "35c722d4-96f3-4d07-bde4-14d156b14130",
      "discount": 0,
      "salesDate": 1614253187,
      "receiptNumber": "555d495f-5b05-4786-8773-978eac1fea91",
      "createdBy": "6856cc2c-790c-473e-a969-b4a85f494f68",
      "auditId": null,
      "created_at": 1614253205110,
      "updated_at": 1614253205110,
      "last_modified": 1614254108842,
      "server_created_at": 1614254108842,
      "lastModifiedBy": null,
      "customer": {
        "id": "35c722d4-96f3-4d07-bde4-14d156b14130",
        "firstName": "Cash",
        "otherNames": "Customer",
        "phone": "1000000000",
        "email": "",
        "type": null,
        "entityId": null,
        "location": "",
        "isTemporary": false,
        "created_at": 1594214705858,
        "updated_at": 1594214705859,
        "last_modified": 1594214705859,
        "server_created_at": 1594214705859
      }
    },
    {
      "id": "f9a9f423-c491-473c-a32f-4c9ba3b1a891",
      "note": null,
      "type": "sales",
      "paymentStatus": null,
      "paymentType": "cash",
      "branchId": "8d0c6496-ec5c-408e-ba33-bfa616ea0a3e",
      "customerId": "35c722d4-96f3-4d07-bde4-14d156b14130",
      "discount": 0,
      "salesDate": 1614252655,
      "receiptNumber": "56009d98-a9e4-41e9-9a2b-4e7cc9c41fb2",
      "createdBy": "6856cc2c-790c-473e-a969-b4a85f494f68",
      "auditId": null,
      "created_at": 1614252697024,
      "updated_at": 1614252697024,
      "last_modified": 1614252720648,
      "server_created_at": 1614252720648,
      "lastModifiedBy": null,
      "customer": {
        "id": "35c722d4-96f3-4d07-bde4-14d156b14130",
        "firstName": "Cash",
        "otherNames": "Customer",
        "phone": "1000000000",
        "email": "",
        "type": null,
        "entityId": null,
        "location": "",
        "isTemporary": false,
        "created_at": 1594214705858,
        "updated_at": 1594214705859,
        "last_modified": 1594214705859,
        "server_created_at": 1594214705859
      }
    },
    {
      "id": "4213323a-1f65-4196-9b4f-f75eabde8bba",
      "note": null,
      "type": "sales",
      "paymentStatus": null,
      "paymentType": "cash",
      "branchId": "8d0c6496-ec5c-408e-ba33-bfa616ea0a3e",
      "customerId": "35c722d4-96f3-4d07-bde4-14d156b14130",
      "discount": 0,
      "salesDate": 1613126338,
      "receiptNumber": "73adc0a0-67ee-48f4-a012-893f601c8e11",
      "createdBy": "6856cc2c-790c-473e-a969-b4a85f494f68",
      "auditId": null,
      "created_at": 1613126357314,
      "updated_at": 1613126357314,
      "last_modified": 1613126382789,
      "server_created_at": 1613126382789,
      "lastModifiedBy": null,
      "customer": {
        "id": "35c722d4-96f3-4d07-bde4-14d156b14130",
        "firstName": "Cash",
        "otherNames": "Customer",
        "phone": "1000000000",
        "email": "",
        "type": null,
        "entityId": null,
        "location": "",
        "isTemporary": false,
        "created_at": 1594214705858,
        "updated_at": 1594214705859,
        "last_modified": 1594214705859,
        "server_created_at": 1594214705859
      }
    },
    {
      "id": "2fc3eabd-da76-47e5-ab36-f48ca59b2662",
      "note": null,
      "type": "sales",
      "paymentStatus": null,
      "paymentType": "cash",
      "branchId": "8d0c6496-ec5c-408e-ba33-bfa616ea0a3e",
      "customerId": "35c722d4-96f3-4d07-bde4-14d156b14130",
      "discount": 0,
      "salesDate": 1613126286,
      "receiptNumber": "90ee6c66-cd63-4379-81a1-cf7252c2858f",
      "createdBy": "6856cc2c-790c-473e-a969-b4a85f494f68",
      "auditId": null,
      "created_at": 1613126304222,
      "updated_at": 1613126304222,
      "last_modified": 1613126322498,
      "server_created_at": 1613126322498,
      "lastModifiedBy": null,
      "customer": {
        "id": "35c722d4-96f3-4d07-bde4-14d156b14130",
        "firstName": "Cash",
        "otherNames": "Customer",
        "phone": "1000000000",
        "email": "",
        "type": null,
        "entityId": null,
        "location": "",
        "isTemporary": false,
        "created_at": 1594214705858,
        "updated_at": 1594214705859,
        "last_modified": 1594214705859,
        "server_created_at": 1594214705859
      }
    },
    {
      "id": "495e8027-122c-4b90-a579-14b0f1664d37",
      "note": null,
      "type": "sales",
      "paymentStatus": null,
      "paymentType": "cash",
      "branchId": "8d0c6496-ec5c-408e-ba33-bfa616ea0a3e",
      "customerId": "35c722d4-96f3-4d07-bde4-14d156b14130",
      "discount": 0,
      "salesDate": 1612891236,
      "receiptNumber": "728f3141-9959-4359-84de-bc35dc8561f0",
      "createdBy": "6856cc2c-790c-473e-a969-b4a85f494f68",
      "auditId": null,
      "created_at": 1612891240708,
      "updated_at": 1612891240708,
      "last_modified": 1612891265540,
      "server_created_at": 1612891265540,
      "lastModifiedBy": null,
      "customer": {
        "id": "35c722d4-96f3-4d07-bde4-14d156b14130",
        "firstName": "Cash",
        "otherNames": "Customer",
        "phone": "1000000000",
        "email": "",
        "type": null,
        "entityId": null,
        "location": "",
        "isTemporary": false,
        "created_at": 1594214705858,
        "updated_at": 1594214705859,
        "last_modified": 1594214705859,
        "server_created_at": 1594214705859
      }
    },
    {
      "id": "1aa8a284-feb4-41d7-8893-cefe558db93a",
      "note": null,
      "type": "sales",
      "paymentStatus": null,
      "paymentType": "credit",
      "branchId": "8d0c6496-ec5c-408e-ba33-bfa616ea0a3e",
      "customerId": "49685658-61d9-4d1d-8c4e-f6dd2643d3fd",
      "discount": 0,
      "salesDate": 1612890801,
      "receiptNumber": "3484204e-9ae3-4854-8101-e682638bd655",
      "createdBy": "6856cc2c-790c-473e-a969-b4a85f494f68",
      "auditId": null,
      "created_at": 1612890812593,
      "updated_at": 1612890812593,
      "last_modified": 1612890839692,
      "server_created_at": 1612890839692,
      "lastModifiedBy": null,
      "customer": {
        "id": "49685658-61d9-4d1d-8c4e-f6dd2643d3fd",
        "firstName": "Haija",
        "otherNames": null,
        "phone": "000000000",
        "email": null,
        "type": null,
        "entityId": null,
        "location": "Tamale, Ghana",
        "isTemporary": false,
        "created_at": 1609938174167,
        "updated_at": 1609938174167,
        "last_modified": 1609938198483,
        "server_created_at": 1609938198483
      }
    },
    {
      "id": "0535a63b-d197-42e8-884d-bf2528ba025a",
      "note": null,
      "type": "sales",
      "paymentStatus": null,
      "paymentType": "cash",
      "branchId": "8d0c6496-ec5c-408e-ba33-bfa616ea0a3e",
      "customerId": "35c722d4-96f3-4d07-bde4-14d156b14130",
      "discount": 0,
      "salesDate": 1612890734,
      "receiptNumber": "39eae725-f093-4f84-8298-8ac94df8768a",
      "createdBy": "6856cc2c-790c-473e-a969-b4a85f494f68",
      "auditId": null,
      "created_at": 1612890738016,
      "updated_at": 1612890738016,
      "last_modified": 1612890839692,
      "server_created_at": 1612890839692,
      "lastModifiedBy": null,
      "customer": {
        "id": "35c722d4-96f3-4d07-bde4-14d156b14130",
        "firstName": "Cash",
        "otherNames": "Customer",
        "phone": "1000000000",
        "email": "",
        "type": null,
        "entityId": null,
        "location": "",
        "isTemporary": false,
        "created_at": 1594214705858,
        "updated_at": 1594214705859,
        "last_modified": 1594214705859,
        "server_created_at": 1594214705859
      }
    }
  ]
}
